…
::: callout-warning Which of the following, if any, to use? I wish
`augment(slr_fit)` worked… :::

``` r
augment(slr_fit) # wish it worked
```

    Error in augment.model_fit(slr_fit): argument "new_data" is missing, with no default

``` r
augment(slr_fit$fit) # avoid this
```

    # A tibble: 333 × 8
       body_mass_g flipper_length_mm .fitted  .resid    .hat .sigma     .cooksd
             <int>             <int>   <dbl>   <dbl>   <dbl>  <dbl>       <dbl>
     1        3750               181   3206.  544.   0.00912   393. 0.00889    
     2        3800               186   3456.  344.   0.00644   393. 0.00249    
     3        3250               195   3908. -658.   0.00355   392. 0.00500    
     4        3450               193   3807. -357.   0.00398   393. 0.00166    
     5        3650               190   3657.   -7.03 0.00485   394. 0.000000781
     6        3625               181   3206.  419.   0.00912   393. 0.00528    
     7        4675               195   3908.  767.   0.00355   392. 0.00680    
     8        3200               182   3256.  -55.8  0.00852   394. 0.0000872  
     9        3800               191   3707.   92.8  0.00453   394. 0.000127   
    10        4400               198   4058.  342.   0.00314   393. 0.00119    
    # … with 323 more rows, and 1 more variable: .std.resid <dbl>

``` r
augment(slr_fit, new_data = penguins) # needs good articulation why it's diferent than tidy() and glance()
```

    # A tibble: 333 × 10
       species island    bill_length_mm bill_depth_mm flipper_length_mm body_mass_g
       <fct>   <fct>              <dbl>         <dbl>             <int>       <int>
     1 Adelie  Torgersen           39.1          18.7               181        3750
     2 Adelie  Torgersen           39.5          17.4               186        3800
     3 Adelie  Torgersen           40.3          18                 195        3250
     4 Adelie  Torgersen           36.7          19.3               193        3450
     5 Adelie  Torgersen           39.3          20.6               190        3650
     6 Adelie  Torgersen           38.9          17.8               181        3625
     7 Adelie  Torgersen           39.2          19.6               195        4675
     8 Adelie  Torgersen           41.1          17.6               182        3200
     9 Adelie  Torgersen           38.6          21.2               191        3800
    10 Adelie  Torgersen           34.6          21.1               198        4400
    # … with 323 more rows, and 4 more variables: sex <fct>, year <int>,
    #   .pred <dbl>, .resid <dbl>

``` r
predict(slr_fit, new_data = penguins)
```

    # A tibble: 333 × 1
       .pred
       <dbl>
     1 3206.
     2 3456.
     3 3908.
     4 3807.
     5 3657.
     6 3206.
     7 3908.
     8 3256.
     9 3707.
    10 4058.
    # … with 323 more rows
…
